hyperparameter tuning – ess-330-lab-6
…
The randomly selected predictors are representative of the mtry hyperparameter and are largely scattered, indicating that mtry does not have a strong effect on the metrics. The minimal node size is representative of the min_n parameter and suggests that for MAE and RMSE, both values decrease as min_n increases, with the gains tapering off as Minimal Node Size increases past 25. The rsq value increases as min_n increases and levels off, indicating that the model explains more variance with a greater node size, but that these gains lessen after a certain point, about 30. The grid indicates that the most impactful parameter is min_n and the effect of mtry is negligable. The optimal performance of this model would include a min_n with values between 25-35.

#6 Check Skill of Tuned Model
collect_metrics(model_params) %>%
  filter(.metric == "rsq") %>%
  arrange(desc(mean))

# A tibble: 25 × 8
    mtry min_n .metric .estimator  mean     n std_err .config              
   <int> <int> <chr>   <chr>      <dbl> <int>   <dbl> <chr>                
 1    33    39 rsq     standard   0.797    10  0.0245 Preprocessor1_Model23
 2    41    36 rsq     standard   0.797    10  0.0249 Preprocessor1_Model06
 3     5    38 rsq     standard   0.797    10  0.0249 Preprocessor1_Model19
 4    21    34 rsq     standard   0.796    10  0.0248 Preprocessor1_Model13
 5    14    33 rsq     standard   0.796    10  0.0251 Preprocessor1_Model17
 6    29    31 rsq     standard   0.795    10  0.0249 Preprocessor1_Model07
 7     7    29 rsq     standard   0.795    10  0.0248 Preprocessor1_Model21
 8    28    30 rsq     standard   0.795    10  0.0251 Preprocessor1_Model16
 9    36    26 rsq     standard   0.794    10  0.0252 Preprocessor1_Model09
10    35    25 rsq     standard   0.793    10  0.0252 Preprocessor1_Model08
# ℹ 15 more rows
…
collect_metrics(final_fit)

# A tibble: 2 × 4
  .metric .estimator .estimate .config             
  <chr>   <chr>          <dbl> <chr>               
1 rmse    standard       0.623 Preprocessor1_Model1
2 rsq     standard       0.791 Preprocessor1_Model1

The final model performs slightly worse than on the training data, with this model having an rsq value of 0.789 while the tuned model had a best rsq value of 0.796. I think that because these values are relatively close to each other, the model still is a good representation of the whole dataset and will be able to make pretty accurate predictions.

final_preds <- collect_predictions(final_fit)
print(final_preds)

# A tibble: 102 × 5
    .pred id                .row logQmean .config             
    <dbl> <chr>            <int>    <dbl> <chr>               
 1 0.728  train/test split     1  0.776   Preprocessor1_Model1
 2 0.633  train/test split    15  0.620   Preprocessor1_Model1
 3 0.842  train/test split    17  0.805   Preprocessor1_Model1
 4 0.763  train/test split    19  0.766   Preprocessor1_Model1
 5 0.683  train/test split    28  0.707   Preprocessor1_Model1
 6 0.167  train/test split    37  0.0948  Preprocessor1_Model1
 7 0.247  train/test split    38  0.151   Preprocessor1_Model1
 8 0.0278 train/test split    44 -0.00956 Preprocessor1_Model1
 9 0.168  train/test split    46  0.132   Preprocessor1_Model1
10 0.0129 train/test split    47  0.00388 Preprocessor1_Model1
# ℹ 92 more rows
…
